%YAML 1.1
%TAG !u! tag:unity3d.com,2011:
--- !u!114 &11400000
MonoBehaviour:
  m_ObjectHideFlags: 0
  m_CorrespondingSourceObject: {fileID: 0}
  m_PrefabInstance: {fileID: 0}
  m_PrefabAsset: {fileID: 0}
  m_GameObject: {fileID: 0}
  m_Enabled: 1
  m_EditorHideFlags: 0
  m_Script: {fileID: 11500000, guid: 2a151aae416b497c9eaea8aa5ac1c555, type: 3}
  m_Name: Theme_General
  m_EditorClassIdentifier: 
  m_themeName: General
  SerializedGuid: 5a66c729750cb648bfced85402bce482
  m_activeVariant:
    m_variantName: Default
    SerializedGuid: d92bf34bb259984395e8c42bcd8c26c8
    Colors:
    - m_color: {r: 1, g: 1, b: 1, a: 1}
      SerializedGuid: 5af9b428c132a649b843e2c9d913ee47
    - m_color: {r: 1, g: 1, b: 1, a: 1}
      SerializedGuid: 23b48e6d5d46c949b0eab9210dea64d4
    - m_color: {r: 1, g: 1, b: 1, a: 1}
      SerializedGuid: 8cc690678359ec458f6bfcf8b2309c81
    - m_color: {r: 1, g: 1, b: 1, a: 1}
      SerializedGuid: 280a4f54e02acd408cf0834d98a7d8bf
    - m_color: {r: 1, g: 1, b: 1, a: 1}
      SerializedGuid: 0164f3b8ec98604bacaa3d5950371bde
    - m_color: {r: 1, g: 1, b: 1, a: 1}
      SerializedGuid: 5b33d95ae6db9c45bd05ce6bc1110677
    Sprites: []
    Textures: []
    Fonts: []
    FontAssets: []
  ColorLabels:
  - m_label: Primary
    SerializedGuid: 5af9b428c132a649b843e2c9d913ee47
  - m_label: Secondary
    SerializedGuid: 23b48e6d5d46c949b0eab9210dea64d4
  - m_label: Accent 1
    SerializedGuid: 8cc690678359ec458f6bfcf8b2309c81
  - m_label: Accent 2
    SerializedGuid: 280a4f54e02acd408cf0834d98a7d8bf
  - m_label: Text
    SerializedGuid: 0164f3b8ec98604bacaa3d5950371bde
  - m_label: Disabled
    SerializedGuid: 5b33d95ae6db9c45bd05ce6bc1110677
  SpriteLabels: []
  TextureLabels: []
  FontLabels: []
  FontAssetLabels: []
  VariantsNames:
  - Default
  Variants:
  - m_variantName: Default
    SerializedGuid: d92bf34bb259984395e8c42bcd8c26c8
    Colors:
    - m_color: {r: 1, g: 1, b: 1, a: 1}
      SerializedGuid: 5af9b428c132a649b843e2c9d913ee47
    - m_color: {r: 1, g: 1, b: 1, a: 1}
      SerializedGuid: 23b48e6d5d46c949b0eab9210dea64d4
    - m_color: {r: 1, g: 1, b: 1, a: 1}
      SerializedGuid: 8cc690678359ec458f6bfcf8b2309c81
    - m_color: {r: 1, g: 1, b: 1, a: 1}
      SerializedGuid: 280a4f54e02acd408cf0834d98a7d8bf
    - m_color: {r: 1, g: 1, b: 1, a: 1}
      SerializedGuid: 0164f3b8ec98604bacaa3d5950371bde
    - m_color: {r: 1, g: 1, b: 1, a: 1}
      SerializedGuid: 5b33d95ae6db9c45bd05ce6bc1110677
    Sprites: []
    Textures: []
    Fonts: []
    FontAssets: []
